vivado_run/riscv_uvm_proj/riscv_uvm.sim/sim_1/behav/xsim/risc_rv32i_tb_dump.vcd
$date
   Mon Nov 10 01:01:40 2025
$end

$version
  2025.1.0
  $dumpfile ("risc_rv32i_tb_dump.vcd") 
$end

$timescale
  1ps
$end

$scope module tb_risc_rv32i $end
$var reg 1 ! clk $end
$var reg 1 " rst $end
$var reg 1 # stall_i $end
$var wire 32 $ pc [31:0] $end
$var wire 32 % ifid_pc [31:0] $end
$var wire 32 & ifid_instruction [31:0] $end
$var wire 32 ' idex_imm [31:0] $end
$var wire 32 ( idex_rs1_data [31:0] $end
$var wire 32 ) idex_rs2_data [31:0] $end
$var wire 1 * exif_bj_taken $end
$var wire 32 + exif_pc_bj [31:0] $end
$var wire 32 , exmem_alu_result [31:0] $end
$var wire 32 - exmem_rs2_data [31:0] $end
$var wire 32 . memwb_alu_result [31:0] $end
$var wire 32 / memwb_mem_data [31:0] $end
$var wire 1 0 wb_regwrite $end
$var wire 5 1 wb_rd_addr [4:0] $end
$var wire 32 2 wb_data [31:0] $end
$var integer 32 3 if_log [31:0] $end
$var integer 32 4 id_log [31:0] $end
$var integer 32 5 ex_log [31:0] $end
$var integer 32 6 mem_log [31:0] $end
$var integer 32 7 wb_log [31:0] $end
$var integer 32 8 branch_jump [31:0] $end
$var integer 32 9 forwarding_unit [31:0] $end
$var integer 32 : flush_stall [31:0] $end
$scope module uut $end
$var wire 1 ; clk_i $end
$var wire 1 < rst_i $end
$var wire 32 $ pc [31:0] $end
$var wire 32 % ifid_pc [31:0] $end
$var wire 32 & ifid_instruction [31:0] $end
$var wire 32 ' idex_imm [31:0] $end
$var wire 32 ( idex_rs1_data [31:0] $end
$var wire 32 ) idex_rs2_data [31:0] $end
$var wire 1 * exif_bj_taken $end
$var wire 32 + exif_pc_bj [31:0] $end
$var wire 32 , exmem_alu_result [31:0] $end
$var wire 32 - exmem_rs2_data [31:0] $end
$var wire 32 . memwb_alu_result [31:0] $end
$var wire 32 / memwb_mem_data [31:0] $end
$var wire 32 = memwb_pc_plus [31:0] $end
$var wire 1 0 wb_regwrite $end
$var wire 5 1 wb_rd_addr [4:0] $end
$var wire 32 2 wb_data [31:0] $end
$var wire 1 > stall_i $end
$var wire 1 ? flush_ifid $end
$var wire 1 @ flush_idex $end
$var wire 1 A flush_exmem $end
$var wire 1 B stall_pc $end
$var wire 1 C stall_ifid $end
$var wire 1 D stall_idex $end
$var wire 1 E stall_exmem $end
$var wire 32 F if_pc_w [31:0] $end
$var wire 32 G if_pc_next_w [31:0] $end
$var wire 32 H if_instruction_w [31:0] $end
$var wire 32 I if_pc_bj_w [31:0] $end
$var wire 1 J if_bj_taken_w $end
$var reg 32 K pc_r [31:0] $end
$var reg 32 L ifid_pc_r [31:0] $end
$var reg 32 M ifid_instruction_r [31:0] $end
$var wire 32 N id_pc_w [31:0] $end
$var wire 32 O id_instruction_w [31:0] $end
$var wire 5 P id_rs1_addr_w [4:0] $end
$var wire 5 Q id_rs2_addr_w [4:0] $end
$var wire 1 R id_jal_w $end
$var wire 1 S id_jalr_w $end
$var wire 1 T id_se_alu_src1_w $end
$var wire 1 U id_se_alu_src2_w $end
$var wire 1 V id_memread_w $end
$var wire 1 W id_memwrite_w $end
$var wire 3 X id_width_se_w [2:0] $end
$var wire 2 Y id_wb_se_w [1:0] $end
$var wire 1 Z id_regwrite_w $end
$var wire 5 [ id_rd_addr_w [4:0] $end
$var wire 4 \ id_aluop_w [3:0] $end
$var wire 32 ] id_imm_w [31:0] $end
$var wire 32 ^ rf_rs1_data_w [31:0] $end
$var wire 32 _ rf_rs2_data_w [31:0] $end
$var wire 7 ` id_opcode_w [6:0] $end
$var wire 5 a id_src1_w [4:0] $end
$var wire 5 b id_src2_w [4:0] $end
$var wire 5 c id_rd_w [4:0] $end
$var wire 3 d id_funct3_w [2:0] $end
$var wire 7 e id_funct7_w [6:0] $end
$var wire 32 f id_imm_i_w [31:0] $end
$var wire 32 g id_imm_s_w [31:0] $end
$var wire 32 h id_imm_b_w [31:0] $end
$var wire 32 i id_imm_j_w [31:0] $end
$var wire 32 j id_imm_u_w [31:0] $end
$var wire 32 k id_shamt_imm_w [31:0] $end
$var reg 32 l idex_imm_r [31:0] $end
$var reg 32 m idex_rs1_data_r [31:0] $end
$var reg 32 n idex_rs2_data_r [31:0] $end
$var reg 32 o idex_pc_r [31:0] $end
$var reg 1 p idex_jal_r $end
$var reg 1 q idex_jalr_r $end
$var reg 1 r idex_se_alu_src1_r $end
$var reg 1 s idex_se_alu_src2_r $end
$var reg 4 t idex_aluop_r [3:0] $end
$var reg 5 u idex_rs1_addr_r [4:0] $end
$var reg 5 v idex_rs2_addr_r [4:0] $end
$var reg 1 w idex_memread_r $end
$var reg 1 x idex_memwrite_r $end
$var reg 3 y idex_width_se_r [2:0] $end
$var reg 2 z idex_wb_se_r [1:0] $end
$var reg 1 { idex_regwrite_r $end
$var reg 5 | idex_rd_addr_r [4:0] $end
$var wire 3 } id_load_se_w [2:0] $end
$var wire 3 ~ id_store_se_w [2:0] $end
$var wire 4 !! id_alu_r_type_w [3:0] $end
$var wire 4 "! id_alu_i_type_w [3:0] $end
$var wire 4 #! id_alu_b_type_w [3:0] $end
$var wire 1 $! rf_reg_write_w $end
$var wire 5 %! rf_rd_addr_w [4:0] $end
$var wire 32 &! rf_rd_data_w [31:0] $end
$var wire 1 '! ex_jal_w $end
$var wire 1 (! ex_jalr_w $end
$var wire 1 )! ex_alu_src1_w $end
$var wire 1 *! ex_alu_src2_w $end
$var wire 4 +! ex_aluop_w [3:0] $end
$var wire 32 ,! ex_rs1_data_w [31:0] $end
$var wire 32 -! ex_rs2_data_w [31:0] $end
$var wire 32 .! ex_imm_w [31:0] $end
$var wire 5 /! ex_rs1_addr_w [4:0] $end
$var wire 5 0! ex_rs2_addr_w [4:0] $end
$var wire 1 1! ex_memread_w $end
$var wire 1 2! ex_memwrite_w $end
$var wire 2 3! ex_width_se_w [1:0] $end
$var wire 2 4! ex_wb_se_w [1:0] $end
$var wire 1 5! ex_regwrite_w $end
$var wire 5 6! ex_rd_addr_w [4:0] $end
$var wire 32 7! ex_pc_w [31:0] $end
$var wire 32 8! ex_operand_a_w [31:0] $end
$var wire 32 9! ex_operand_b_w [31:0] $end
$var wire 32 :! ex_alu_result_w [31:0] $end
$var wire 32 ;! ex_pc_bj_w [31:0] $end
$var wire 1 <! ex_bj_taken_w $end
$var wire 1 =! ex_alu_branch_taken_w $end
$var wire 4 >! forward_mux_1_w [3:0] $end
$var wire 4 ?! forward_mux_2_w [3:0] $end
$var wire 32 @! forward_src_1_w [31:0] $end
$var wire 32 A! forward_src_2_w [31:0] $end
$var reg 32 B! exif_pc_bj_r [31:0] $end
$var reg 1 C! exif_bj_taken_r $end
$var reg 1 D! exmem_memread_r $end
$var reg 1 E! exmem_memwrite_r $end
$var reg 3 F! exmem_width_se_r [2:0] $end
$var reg 1 G! exmem_regwrite_r $end
$var reg 2 H! exmem_wb_se_r [1:0] $end
$var reg 5 I! exmem_rd_addr_r [4:0] $end
$var reg 32 J! exmem_alu_result_r [31:0] $end
$var reg 32 K! exmem_rs2_data_r [31:0] $end
$var reg 32 L! exmem_pc_plus_r [31:0] $end
$var wire 32 M! ex_add_res_w [31:0] $end
$var wire 32 N! ex_sub_res_w [31:0] $end
$var wire 32 O! ex_sll_res_w [31:0] $end
$var wire 32 P! ex_srl_res_w [31:0] $end
$var wire 32 Q! ex_sra_res_w [31:0] $end
$var wire 32 R! ex_xor_res_w [31:0] $end
$var wire 32 S! ex_or_res_w [31:0] $end
$var wire 32 T! ex_and_res_w [31:0] $end
$var wire 32 U! ex_slt_res_w [31:0] $end
$var wire 32 V! ex_sltu_res_w [31:0] $end
$var wire 1 W! mem_memread_w $end
$var wire 1 X! mem_memwrite_w $end
$var wire 3 Y! mem_width_se_w [2:0] $end
$var wire 1 Z! mem_regwrite_w $end
$var wire 2 [! mem_wb_se_w [1:0] $end
$var wire 5 \! mem_rd_addr_w [4:0] $end
$var wire 32 ]! mem_alu_result_w [31:0] $end
$var wire 32 ^! mem_rs2_data_w [31:0] $end
$var wire 32 _! mem_pc_plus_w [31:0] $end
$var reg 1 `! memwb_regwrite_r $end
$var reg 5 a! memwb_rd_addr_r [4:0] $end
$var reg 2 b! memwb_wb_se_r [1:0] $end
$var reg 32 c! memwb_pc_plus_r [31:0] $end
$var reg 32 d! memwb_alu_result_r [31:0] $end
$var reg 32 e! memwb_mem_data_r [31:0] $end
$var wire 10 f! mem_addr_w [9:0] $end
$var wire 2 g! mem_off_set_w [1:0] $end
$var wire 8 h! din0 [7:0] $end
$var wire 8 i! din1 [7:0] $end
$var wire 8 j! din2 [7:0] $end
$var wire 8 k! din3 [7:0] $end
$var wire 8 l! dout0 [7:0] $end
$var wire 8 m! dout1 [7:0] $end
$var wire 8 n! dout2 [7:0] $end
$var wire 8 o! dout3 [7:0] $end
$var wire 1 p! dmem_we0 $end
$var wire 1 q! dmem_we1 $end
$var wire 1 r! dmem_we2 $end
$var wire 1 s! dmem_we3 $end
$var wire 32 t! lb_data [31:0] $end
$var wire 32 u! lh_data [31:0] $end
$var wire 32 v! lw_data [31:0] $end
$var wire 32 w! lbu_data [31:0] $end
$var wire 32 x! lhu_data [31:0] $end
$var wire 32 y! load_data_w [31:0] $end
$var wire 1 z! misalign_h $end
$var wire 1 {! misalign_w $end
$var wire 1 |! misaligned $end
$var wire 1 }! mem_start_w $end
$var wire 2 ~! wb_sel_w [1:0] $end
$var wire 32 !" wb_alu_result_w [31:0] $end
$var wire 32 "" wb_mem_data_w [31:0] $end
$var wire 32 #" wb_pc_plus_w [31:0] $end
$var wire 1 $" wb_regwrite_w $end
$var wire 5 %" wb_rd_addr_w [4:0] $end
$var wire 32 &" wb_data_w [31:0] $end
$var wire 1 '" exmem_match_1_w $end
$var wire 1 (" exmem_match_2_w $end
$var wire 1 )" memwb_match_1_w $end
$var wire 1 *" memwb_match_2_w $end
$scope task reset_if_stage $end
$upscope $end
$scope task reset_id_stage $end
$upscope $end
$scope task reset_ex_regs $end
$upscope $end
$scope task reset_MEM_to_WB_reg $end
$upscope $end
$upscope $end
$scope begin Block265_22 $end
$var reg 32 +" wmemtrnsf_fd [31:0] $end
$scope begin Block265_23 $end
$var reg 32 ," i1 [31:0] $end
$upscope $end
$upscope $end
$upscope $end
$enddefinitions $end

#0
$dumpvars
0!
b0 !!
b0 !"
1"
b0 "!
b0 ""
0#
b1010 #!
b0 #"
b0 $
0$!
0$"
b0 %
b0 %!
b0 %"
b0 &
b0 &!
b0 &"
b0 '
0'!
0'"
b0 (
0(!
0("
b0 )
0)!
0)"
0*
0*!
0*"
b0 +
b0 +!
b0 +"
b0 ,
b0 ,!
b0 ,"
b0 -
b0 -!
b0 .
b0 .!
b0 /
b0 /!
00
b0 0!
b0 1
01!
b0 2
02!
b11111111111111111011000111100000 3
b0 3!
b11111111111111111011000111100001 4
b0 4!
b11111111111111111011000111100010 5
05!
b11111111111111111011000111100011 6
b0 6!
b11111111111111111011000111100100 7
b0 7!
b11111111111111111011000111100101 8
b0 8!
b11111111111111111011000111100110 9
b0 9!
b11111111111111111011000111100111 :
b0 :!
0;
b0 ;!
1<
0<!
b0 =
0=!
0>
b0 >!
0?
b0 ?!
0@
b0 @!
0A
b0 A!
0B
b0 B!
0C
0C!
0D
0D!
0E
0E!
b0 F
b0 F!
b100 G
0G!
b100000000000010010011 H
b0 H!
b0 I
b0 I!
0J
b0 J!
b0 K
b0 K!
b0 L
b0 L!
b0 M
b0 M!
b0 N
b0 N!
b0 O
b0 O!
b0 P
b0 P!
b0 Q
b0 Q!
0R
b0 R!
0S
b0 S!
0T
b0 T!
0U
b0 U!
0V
b0 V!
0W
0W!
b0 X
0X!
b0 Y
b0 Y!
0Z
0Z!
b0 [
b0 [!
b0 \
b0 \!
b0 ]
b0 ]!
b0 ^
b0 ^!
b0 _
b0 _!
b0 `
0`!
b0 a
b0 a!
b0 b
b0 b!
b0 c
b0 c!
b0 d
b0 d!
b0 e
b0 e!
b0 f
b0 f!
b0 g
b0 g!
b0 h
b0 h!
b0 i
b0 i!
b0 j
b0 j!
b0 k
b0 k!
b0 l
bx l!
b0 m
bx m!
b0 n
bx n!
b0 o
bx o!
0p
0p!
0q
0q!
0r
0r!
0s
0s!
b0 t
bx t!
b0 u
bx u!
b0 v
bx v!
0w
b0xxxxxxxx w!
0x
b0xxxxxxxxxxxxxxxx x!
b0 y
bx y!
b0 z
0z!
0{
0{!
b0 |
0|!
b0 }
0}!
b0 ~
b0 ~!
$end

#5000
1!
1;

#10000
0!
0;

#15000
1!
1;

#20000
0!
0"
0;
0<

#25000
1!
bx ""
b100 $
b100000000000010010011 &
bx /
1;
b100 F
b1000 G
b1000000000000100010011 H
b100 K
b100 L!
b100000000000010010011 M
b100000000000010010011 O
1Z
b1 [
b1 ]
b100 _!
b10011 `
b1 b
b1 c
bx e!
b1 f
b1 g
b100000000000 h
b100000000000 i
b100000000000000000000 j
b1 k

#30000
0!
0;

#35000
1!
b100 #"
b1000 $
b100 %
b1000000000000100010011 &
b1 '
b1 .!
15!
b1 6!
b1 9!
b1 :!
1;
b1 ;!
b100 =
b1000 F
b1100 G
b1100000000000110010011 H
b1000 K
b100 L
b1000000000000100010011 M
b1 M!
b100 N
b11111111111111111111111111111111 N!
b1000000000000100010011 O
b1 R!
b1 S!
b1 U!
b1 V!
b10 [
b10 ]
b10 b
b10 c
b100 c!
b10 f
b10 g
b10 h
b10 i
b1000000000000000000000 j
b10 k
b1 l
1{
b1 |

#40000
0!
0;

#45000
1!
b1100 $
b1000 %
b1100000000000110010011 &
b10 '
b1 +
b1 ,
b10 .!
b10 6!
b100 7!
b10 9!
b10 :!
1;
b110 ;!
b1 B!
b1100 F
b10000 G
1G!
b10000000000001000010011 H
b1 I
b1 I!
b1 J!
b1100 K
b1000 L
b1100000000000110010011 M
b10 M!
b1000 N
b11111111111111111111111111111110 N!
b1100000000000110010011 O
b10 R!
b10 S!
1Z!
b11 [
b1 \!
b11 ]
b1 ]!
b11 b
b11 c
b11 f
b11 g
b1 g!
b100000000010 h
b100000000010 i
b1100000000000000000000 j
b11 k
b10 l
b100 o
b10 |

#50000
0!
0;

#55000
1!
b1 !"
b10000 $
1$!
1$"
b1100 %
b1 %!
b1 %"
b10000000000001000010011 &
b1 &!
b1 &"
b11 '
b110 +
b10 ,
b1 .
b11 .!
10
b1 1
b1 2
b11 6!
b1000 7!
b11 9!
b11 :!
1;
b1011 ;!
b110 B!
b10000 F
b10100 G
b10100000000001010010011 H
b110 I
b10 I!
b10 J!
b10000 K
b1100 L
b1000 L!
b10000000000001000010011 M
b11 M!
b1100 N
b11111111111111111111111111111101 N!
b10000000000001000010011 O
b11 R!
b11 S!
b100 [
b10 \!
b100 ]
b10 ]!
b1000 _!
1`!
b1 a!
b100 b
b100 c
b1 d!
b100 f
b100 g
b10 g!
b100 h
b100 i
b10000000000000000000000 j
b100 k
b11 l
b1000 o
b11 |

#60000
0!
0;

#65000
1!
b10 !"
b1000 #"
b10100 $
b10000 %
b10 %!
b10 %"
b10100000000001010010011 &
b10 &!
b10 &"
b100 '
b1011 +
b11 ,
b10 .
b100 .!
b10 1
b10 2
b100 6!
b1100 7!
b100 9!
b100 :!
1;
b10000 ;!
b1000 =
b1011 B!
b10100 F
b11000 G
b1000001000001100110011 H
b1011 I
b11 I!
b11 J!
b10100 K
b10000 L
b1100 L!
b10100000000001010010011 M
b100 M!
b10000 N
b11111111111111111111111111111100 N!
b10100000000001010010011 O
b100 R!
b100 S!
b101 [
b11 \!
b101 ]
b11 ]!
b1100 _!
b10 a!
b101 b
b101 c
b1000 c!
b10 d!
b101 f
b101 g
b11 g!
b100000000100 h
b100000000100 i
b10100000000000000000000 j
b101 k
b100 l
b1100 o
b100 |

#70000
0!
0;

#75000
1!
b11 !"
b1100 #"
b11000 $
b10100 %
b11 %!
b11 %"
b1000001000001100110011 &
b11 &!
b11 &"
b101 '
b10000 +
b100 ,
b11 .
b101 .!
b11 1
b11 2
b101 6!
b10000 7!
b101 9!
b101 :!
1;
b10101 ;!
b1100 =
b10000 B!
b11000 F
b11100 G
b1000000000100011000001110110011 H
b10000 I
b100 I!
b100 J!
b11000 K
b10100 L
b10000 L!
b1000001000001100110011 M
b101 M!
b10100 N
b11111111111111111111111111111011 N!
b1000001000001100110011 O
b1 P
b10 Q
b101 R!
b101 S!
1U
b110 [
b100 \!
b0 ]
b100 ]!
b1 ^
b10 _
b10000 _!
b110011 `
b1 a
b11 a!
b10 b
b110 c
b1100 c!
b11 d!
b10 f
b1 f!
b110 g
b0 g!
b110 h
b1000000000000010 i
b1000001000000000000000 j
b10 k
b101 l
b10000 o
b101 |

#80000
0!
0;

#85000
1!
b1 !!
b100 !"
b10000 #"
b11100 $
b11000 %
b100 %!
b100 %"
b1000000000100011000001110110011 &
b100 &!
b100 &"
b0 '
b1 (
b10 )
1*!
b10101 +
b101 ,
b1 ,!
b10 -!
b100 .
b0 .!
b1 /!
b10 0!
b100 1
b100 2
b110 6!
b10100 7!
b1 8!
b10 9!
b11 :!
1;
b10100 ;!
b10000 =
b1 @!
b10 A!
b10101 B!
b11100 F
b100000 G
b1000001001010000110011 H
b10101 I
b101 I!
b101 J!
b11100 K
b11000 L
b10100 L!
b1000000000100011000001110110011 M
b11 M!
b11000 N
b11111111111111111111111111111111 N!
b1000000000100011000001110110011 O
b100 O!
b11 P
b1 Q
b11 R!
b11 S!
b111 [
b1 \
b101 \!
b101 ]!
b11 ^
b1 _
b10100 _!
b11 a
b100 a!
b1 b
b111 c
b10000 c!
b100 d!
b100000 e
b10000000001 f
b10000000111 g
b1 g!
b110000000110 h
b11000110000000000 i
b1000000000100011000000000000000 j
b1 k
b0 l
b1 m
b10 n
b10100 o
1s
b1 u
b10 v
b110 |

#90000
0!
0;

#95000
1!
b10 !!
b101 !"
b10 "!
b1011 #!
b10100 #"
b100000 $
b11100 %
b101 %!
b101 %"
b1000001001010000110011 &
b101 &!
b101 &"
b11 (
b1 )
b10100 +
b1 +!
b11 ,
b11 ,!
b10 -
b1 -!
b101 .
b11 /!
b1 0!
b101 1
b101 2
b111 6!
b11000 7!
b11 8!
b1 9!
b10 :!
1;
b11000 ;!
b10100 =
b11 @!
b1 A!
b10100 B!
b100000 F
b100100 G
b1000001010010010110011 H
b10100 I
b110 I!
b11 J!
b100000 K
b10 K!
b11100 L
b11000 L!
b1000001001010000110011 M
b100 M!
b11100 N
b10 N!
b1000001001010000110011 O
b110 O!
b1 P
b1 P!
b10 Q
b1 Q!
b10 R!
b1 T!
b0 U!
b0 V!
b1000 [
b10 \
b110 \!
b11 ]!
b1 ^
b10 ^!
b10 _
b11000 _!
b1 a
b101 a!
b10 b
b1000 c
b10100 c!
b1 d
b101 d!
b0 e
b10 f
b0 f!
b1000 g
b11 g!
b1000 h
b1001000000000010 i
b1000001001000000000000 j
b10 k
b11 m
b1 n
b11000 o
b1 t
b11 u
b1 v
b111 |
b1 }
b1 ~

#100000
0!
0;

#105000
1!
b11 !!
b11 !"
b11 "!
b1010 #!
b11000 #"
b100100 $
b100000 %
b110 %!
b110 %"
b1000001010010010110011 &
b11 &!
b11 &"
b1 (
b10 )
b11000 +
b10 +!
b10 ,
b1 ,!
b1 -
b10 -!
b11 .
b1 /!
b10 0!
b110 1
b11 2
b1000 6!
b11100 7!
b1 8!
b10 9!
b100 :!
1;
b11100 ;!
b11000 =
b1 @!
b10 A!
b11000 B!
b100100 F
b101000 G
b1000001011010100110011 H
b11000 I
b111 I!
b10 J!
b100100 K
b1 K!
b100000 L
b11100 L!
b1000001010010010110011 M
b11 M!
b100000 N
b11111111111111111111111111111111 N!
b1000001010010010110011 O
b100 O!
b0 P!
b0 Q!
b11 R!
b0 T!
b1 U!
b1 V!
b1001 [
b11 \
b111 \!
b10 ]!
b1 ^!
b11100 _!
b110 a!
b1001 c
b11000 c!
b10 d
b11 d!
b1001 g
b10 g!
b100000001000 h
b1010000000000010 i
b1000001010000000000000 j
b1 m
b10 n
b11100 o
b10 t
b1 u
b10 v
b1000 |
b10 }
b10 ~

#110000
0!
0;

#115000
1!
b100 !!
b10 !"
b100 "!
b11100 #"
b101000 $
b100100 %
b111 %!
b111 %"
b1000001011010100110011 &
b10 &!
b10 &"
b11100 +
b11 +!
b100 ,
b10 -
b10 .
b111 1
b10 2
b1001 6!
b100000 7!
b1 :!
1;
b100000 ;!
b11100 =
b11100 B!
b101000 F
b101100 G
b1000001100010110110011 H
b11100 I
b1000 I!
b100 J!
b101000 K
b10 K!
b100100 L
b100000 L!
b1000001011010100110011 M
b100100 N
b1000001011010100110011 O
b1010 [
b100 \
b1000 \!
b100 ]!
b10 ^!
b100000 _!
b111 a!
b1010 c
b11100 c!
b11 d
b10 d!
b1 f!
b1010 g
b0 g!
b1010 h
b10 h!
b1011000000000010 i
b1000001011000000000000 j
b100000 o
b11 t
b1001 |

#120000
0!
0;

#125000
1!
b101 !!
b100 !"
b101 "!
b1100 #!
b100000 #"
b101100 $
b101000 %
b1000 %!
b1000 %"
b1000001100010110110011 &
b100 &!
b100 &"
b100000 +
b100 +!
b1 ,
b100 .
b1000 1
b100 2
b1010 6!
b100100 7!
1;
b100100 ;!
b100000 =
b100000 B!
b101100 F
b110000 G
b100010101011000110011 H
b100000 I
b1001 I!
b1 J!
b101100 K
b101000 L
b100100 L!
b1000001100010110110011 M
b101000 N
b1000001100010110110011 O
b1011 [
b101 \
b1001 \!
b1 ]!
b100100 _!
b1000 a!
b1011 c
b100000 c!
b100 d
b100 d!
b0 f!
b1011 g
b1 g!
b100000001010 h
b0 h!
b1100000000000010 i
b1000001100000000000000 j
b100100 o
b100 t
b1010 |
b100 }

#130000
0!
0;

#135000
1!
b110 !!
b1 !"
b110 "!
b1101 #!
b100100 #"
b110000 $
b101100 %
b1001 %!
b1001 %"
b100010101011000110011 &
b1 &!
b1 &"
b100100 +
b101 +!
b1 .
b1001 1
b1 2
b1011 6!
b101000 7!
b11 :!
1;
b101000 ;!
b100100 =
b100100 B!
b110000 F
b110100 G
b1000000000100010101011010110011 H
b100100 I
b1010 I!
b110000 K
b101100 L
b101000 L!
b100010101011000110011 M
b101100 N
b100010101011000110011 O
b10 P
b1 Q
b1100 [
b110 \
b1010 \!
b10 ^
b1 _
b101000 _!
b10 a
b1001 a!
b1 b
b1100 c
b100100 c!
b101 d
b1 d!
b1 f
b1100 g
b1100 h
b10101100000000000 i
b100010101000000000000 j
b1 k
b101000 o
b101 t
b1011 |
b101 }

#140000
0!
0;

#145000
1!
b111 !!
b111 "!
b101000 #"
b110100 $
b110000 %
b1010 %!
b1010 %"
b1000000000100010101011010110011 &
b10 (
b1 )
b101000 +
b110 +!
b11 ,
b10 ,!
b1 -!
b10 /!
b1 0!
b1010 1
b1100 6!
b101100 7!
b10 8!
b1 9!
b1 :!
1;
b101100 ;!
b101000 =
b10 @!
b1 A!
b101000 B!
b110100 F
b111000 G
b1000001110011100110011 H
b101000 I
b1011 I!
b11 J!
b110100 K
b110000 L
b101100 L!
b1000000000100010101011010110011 M
b110000 N
b1 N!
b1000000000100010101011010110011 O
b1 P!
b1 Q!
b0 U!
b0 V!
b1101 [
b111 \
b1011 \!
b11 ]!
b101100 _!
b1010 a!
b1101 c
b101000 c!
b100000 e
b10000000001 f
b10000001101 g
b11 g!
b110000001100 h
b10101110000000000 i
b1000000000100010101000000000000 j
b10 m
b1 n
b101100 o
b110 t
b10 u
b1 v
b1100 |

#150000
0!
0;

#155000
1!
b1000 !!
b11 !"
b1000 "!
b1110 #!
b101100 #"
b111000 $
b110100 %
b1011 %!
b1011 %"
b1000001110011100110011 &
b11 &!
b11 &"
b101100 +
b111 +!
b1 ,
b1 -
b11 .
b1011 1
b11 2
b1101 6!
b110000 7!
1;
b110000 ;!
b101100 =
b101100 B!
b111000 F
b111100 G
b1000001111011110110011 H
b101100 I
b1100 I!
b1 J!
b111000 K
b1 K!
b110100 L
b110000 L!
b1000001110011100110011 M
b110100 N
b1000001110011100110011 O
b1 P
b10 Q
b1110 [
b1000 \
b1100 \!
b1 ]!
b1 ^
b1 ^!
b10 _
b110000 _!
b1 a
b1011 a!
b10 b
b1110 c
b101100 c!
b110 d
b11 d!
b0 e
b10 f
b1110 g
b1 g!
b1110 h
b1110000000000010 i
b1000001110000000000000 j
b10 k
b110000 o
b111 t
b1101 |
b10 }

#160000
0!
0;

#165000
1!
b1001 !!
b1 !"
b1001 "!
b1111 #!
b110000 #"
b111100 $
b111000 %
b1100 %!
b1100 %"
b1000001111011110110011 &
b1 &!
b1 &"
b1 (
b10 )
b110000 +
b1000 +!
b1 ,!
b10 -!
b1 .
b1 /!
b10 0!
b1100 1
b1 2
b1110 6!
b110100 7!
b1 8!
b10 9!
b11 :!
1;
b110100 ;!
b110000 =
b1 @!
b10 A!
b110000 B!
b111100 F
b1000000 G
b101000001000100000010011 H
b110000 I
b1101 I!
b111100 K
b111000 L
b110100 L!
b1000001111011110110011 M
b111000 N
b11111111111111111111111111111111 N!
b1000001111011110110011 O
b0 P!
b0 Q!
b1 U!
b1 V!
b1111 [
b1001 \
b1101 \!
b110100 _!
b1100 a!
b1111 c
b110000 c!
b111 d
b1 d!
b1111 g
b100000001110 h
b1111000000000010 i
b1000001111000000000000 j
b1 m
b10 n
b110100 o
b1000 t
b1 u
b10 v
b1110 |

#170000
0!
0;

#175000
1!
b0 !!
b0 "!
b1010 #!
b110100 #"
b1000000 $
b111100 %
b1101 %!
b1101 %"
b101000001000100000010011 &
b110100 +
b1001 +!
b11 ,
b10 -
b1101 1
b1111 6!
b111000 7!
b0 :!
1;
b111000 ;!
b110100 =
b110100 B!
b1000000 F
b1000100 G
b10100001010100010010011 H
b110100 I
b1110 I!
b11 J!
b1000000 K
b10 K!
b111100 L
b111000 L!
b101000001000100000010011 M
b111100 N
b101000001000100000010011 O
b0 Q
0U
b10000 [
b0 \
b1110 \!
b1010 ]
b11 ]!
b10 ^!
b0 _
b111000 _!
b10011 `
b1101 a!
b1010 b
b10000 c
b110100 c!
b0 d
b1010 f
b10000 g
b11 g!
b10000 h
b1000000000001010 i
b101000001000000000000000 j
b1010 k
b111000 o
b1001 t
b1111 |
b0 }
b0 ~

#180000
0!
0;

#185000
1!
b11 !!
b11 !"
b11 "!
b111000 #"
b1000100 $
b1000000 %
b1110 %!
b1110 %"
b10100001010100010010011 &
b11 &!
b11 &"
b1010 '
b0 )
0*!
b111000 +
b0 +!
b0 ,
b0 -!
b11 .
b1010 .!
b0 0!
b1110 1
b11 2
b10000 6!
b111100 7!
b1010 9!
b1011 :!
1;
b1000110 ;!
b111000 =
b0 A!
b111000 B!
b1000100 F
b1001000 G
b10100001011100100010011 H
b111000 I
b1111 I!
b0 J!
b1000100 K
b1000000 L
b111100 L!
b10100001010100010010011 M
b1011 M!
b1000000 N
b11111111111111111111111111110111 N!
b10100001010100010010011 O
b10000000000 O!
b1011 R!
b1011 S!
b10001 [
b11 \
b1111 \!
b101 ]
b0 ]!
b111100 _!
b1110 a!
b101 b
b10001 c
b111000 c!
b10 d
b11 d!
b101 f
b10001 g
b0 g!
b100000010000 h
b10 h!
b1010100000000100 i
b10100001010000000000000 j
b101 k
b1010 l
b0 n
b111100 o
0s
b0 t
b0 v
b10000 |
b10 }
b10 ~

#190000
0!
0;

#195000
1!
b100 !!
b0 !"
b100 "!
b111100 #"
b1001000 $
b1000100 %
b1111 %!
b1111 %"
b10100001011100100010011 &
b0 &!
b0 &"
b101 '
b1000110 +
b11 +!
b1011 ,
b0 -
b0 .
b101 .!
b1111 1
b0 2
b10001 6!
b1000000 7!
b101 9!
b1 :!
1;
b1000101 ;!
b111100 =
b1000110 B!
b1001000 F
b1001100 G
b1100001100100110010011 H
b1000110 I
b10000 I!
b1011 J!
b1001000 K
b0 K!
b1000100 L
b1000000 L!
b10100001011100100010011 M
b110 M!
b1000100 N
b11111111111111111111111111111100 N!
b10100001011100100010011 O
b100000 O!
b100 R!
b101 S!
b1 T!
b10010 [
b100 \
b10000 \!
b1011 ]!
b0 ^!
b1000000 _!
b1111 a!
b10010 c
b111100 c!
b11 d
b0 d!
b10 f!
b10010 g
b11 g!
b10010 h
b0 h!
b1011100000000100 i
b10100001011000000000000 j
b101 l
b1000000 o
b11 t
b10001 |

#200000
0!
0;

#205000
1!
b101 !!
b1011 !"
b101 "!
b1100 #!
b1000000 #"
b1001100 $
b1001000 %
b10000 %!
b10000 %"
b1100001100100110010011 &
b1011 &!
b1011 &"
b1000101 +
b100 +!
b1 ,
b1011 .
b10000 1
b1011 2
b10010 6!
b1000100 7!
1;
b1001001 ;!
b1000000 =
b1000101 B!
b1001100 F
b1010000 G
b11100001110101000010011 H
b1000101 I
b10001 I!
b1 J!
b1001100 K
b1001000 L
b1000100 L!
b1100001100100110010011 M
b1001000 N
b1100001100100110010011 O
b10011 [
b101 \
b10001 \!
b11 ]
b1 ]!
b1000100 _!
b10000 a!
b11 b
b10011 c
b1000000 c!
b100 d
b1011 d!
b11 f
b0 f!
b10011 g
b1 g!
b100000010010 h
b1100100000000010 i
b1100001100000000000000 j
b11 k
b1000100 o
b100 t
b10010 |
b100 }

#210000
0!
0;

